20.6175,4.2524999999999995,0.075,0.03,0.075,0.0,0.0025,0.12250000000000001,1.81,0.02,0.16499999999999998,0.03,0.05,0.0075,0.0025,0.0,0.6599999999999999,0.8400000000000001,0.0025,0.385,1.1400000000000001,0.015,0.0225,0.11000000000000001,0.16499999999999998,0.05,
1.4975,301.915,2.56,3.9225000000000003,5.175,0.05500000000000001,0.015,18.0275,18.169999999999998,1.9175,4.8275,5.0225,4.8025,0.75,0.67,2.88,25.6875,4.3,0.4325,3.8950000000000005,14.102500000000001,0.5025000000000001,2.2775,1.4975,4.62,8.627500000000001,
0.017499999999999998,11.5125,2.8825,4.6475,0.09,0.0,0.005,2.7024999999999997,4.1,0.17250000000000001,0.39249999999999996,0.052500000000000005,0.0725,0.034999999999999996,0.5599999999999999,0.02,0.052500000000000005,0.1875,0.0025,0.9800000000000001,3.7,0.02,0.425,0.1675,0.8825,0.06999999999999999,
0.03,1.6575,0.042499999999999996,63.4625,0.095,0.0,0.0025,0.08249999999999999,0.275,0.045,0.095,0.08499999999999999,0.05,0.0225,0.0075,0.0125,0.05500000000000001,0.1925,0.0025,0.1125,0.28500000000000003,0.01,0.04,0.12250000000000001,0.3375,0.0775,
0.28250000000000003,11.5775,0.38,0.4,53.5625,0.0,0.0,0.545,1.1300000000000001,0.39,5.965,0.29,2.1550000000000002,0.042499999999999996,0.1575,0.08249999999999999,2.7175000000000002,5.0175,0.1075,0.5775,0.5275000000000001,15.132499999999999,0.355,6.0075,2.2275,3.8200000000000003,
0.05,1.4324999999999999,0.057499999999999996,0.0075,0.0075,0.05,0.0,0.1125,0.425,0.0025,0.505,0.9550000000000001,0.21000000000000002,0.45499999999999996,0.35,0.20249999999999999,0.0075,0.06999999999999999,0.05,0.015,0.057499999999999996,0.0025,0.6525000000000001,0.4,0.16499999999999998,0.057499999999999996,
0.0,0.365,0.0025,0.01,0.027500000000000004,0.0,1.25,0.02,0.045,0.005,0.7125,4.654999999999999,0.005,0.40499999999999997,0.0,0.0025,0.01,0.0125,0.0,0.0075,0.0025,0.0025,0.805,0.017499999999999998,0.025,0.0125,
2.96,36.2375,1.185,0.8375,1.1525,0.0,0.0,58.705,8.334999999999999,0.26,0.615,0.1625,1.8,0.04,0.2225,0.065,4.32,1.0725,0.2575,2.1525,5.43,0.28250000000000003,0.052500000000000005,1.7850000000000001,2.215,3.5549999999999997,
1.2449999999999999,42.725,2.6725000000000003,2.565,2.315,0.0,0.01,9.9075,137.675,0.9724999999999999,2.295,0.2725,0.3975,0.05500000000000001,1.1824999999999999,0.13999999999999999,1.6475000000000002,2.7024999999999997,0.4625,4.3825,11.540000000000001,0.11499999999999999,0.5775,1.8775,4.465,0.65,
0.0125,6.69,0.8724999999999999,0.635,0.1125,0.0,0.0,0.605,2.9125,7.472499999999999,0.755,0.045,0.4325,0.0125,0.6125,0.0075,0.27999999999999997,0.075,0.0025,5.9325,1.7025,0.0075,0.017499999999999998,0.0625,0.9875,0.505,
1.0925,16.6575,0.8975,2.2775,3.8225000000000002,0.0,0.1525,2.6225,8.5625,4.4025,43.2375,10.7675,6.935,0.28250000000000003,0.41,1.1300000000000001,3.5100000000000002,2.5075,0.1525,2.4875,1.7449999999999999,1.7025,2.3425000000000002,4.1325,2.2625,4.0075,
0.7424999999999999,4.8075,0.042499999999999996,0.0725,0.27749999999999997,0.15,0.3025,0.1575,1.0125,0.08,6.14,57.77,0.28250000000000003,1.7274999999999998,0.3525,0.02,0.11499999999999999,0.5075000000000001,0.0025,0.08249999999999999,0.11000000000000001,0.027500000000000004,9.4,0.9475,0.2125,0.7575000000000001,
0.195,24.11,1.6024999999999998,0.7075,4.4525,0.0,0.0025,5.79,2.4425,0.28500000000000003,5.6875,0.16999999999999998,24.3725,0.027500000000000004,0.11000000000000001,1.46,6.755,3.15,0.1075,0.4725,0.9400000000000001,0.915,0.28500000000000003,2.975,0.585,4.85,
0.017499999999999998,1.4575,0.1625,0.0325,0.5775,0.05,0.25,0.24500000000000002,0.13,0.0075,0.6925,5.9799999999999995,0.16999999999999998,10.0525,0.0025,0.0,0.08249999999999999,0.0475,0.0,0.027500000000000004,0.0325,0.05500000000000001,2.605,0.2375,0.057499999999999996,0.1275,
0.01,4.2475000000000005,0.3175,0.015,0.034999999999999996,0.0,0.0,1.3824999999999998,1.8649999999999998,0.255,0.0475,0.0125,0.0225,0.0025,2.305,0.0025,0.02,0.052500000000000005,0.0025,0.12,0.26749999999999996,0.0025,0.01,0.042499999999999996,0.975,0.0375,
0.3075,12.4575,0.0725,0.025,0.375,0.0,0.0,0.29500000000000004,0.605,0.20750000000000002,0.16,0.27999999999999997,1.0675000000000001,0.01,0.0025,6.205,1.9324999999999999,0.12250000000000001,0.0,0.015,0.63,0.0075,0.1275,0.2475,0.9775,0.12,
0.255,59.4,1.0050000000000001,0.5575,0.6375,0.0,0.0,2.3725,2.75,0.2525,1.4,0.11000000000000001,2.3,0.0125,0.31,1.7625,16.505000000000003,2.0375,0.0075,0.9275,2.0949999999999998,0.0325,0.06,0.7825,1.7125,0.665,
0.5725,22.805,0.4375,1.3175000000000001,3.5774999999999997,0.005,0.0,1.935,5.5375,0.3125,1.6175000000000002,0.205,1.3050000000000002,0.042499999999999996,0.02,0.48250000000000004,1.725,130.9875,0.45499999999999996,1.4475,4.9575000000000005,0.4375,0.08499999999999999,0.8474999999999999,2.0075,1.3275000000000001,
0.005,2.165,0.36,0.5025000000000001,0.155,0.0,0.0,0.3125,0.545,0.1075,0.36,0.0075,0.2525,0.005,0.0,0.05500000000000001,0.10500000000000001,0.14250000000000002,1.3,0.10500000000000001,0.96,0.005,0.015,0.0225,0.042499999999999996,0.02,
0.09,13.7975,0.8175000000000001,0.0725,0.2375,0.0,0.0,4.0225,6.565,1.8024999999999998,0.43,0.20750000000000002,0.06999999999999999,0.04,0.2125,0.0125,0.93,1.2625,0.11000000000000001,8.184999999999999,2.4524999999999997,0.03,0.6950000000000001,0.3,5.015,0.5425,
1.185,35.9775,2.37,0.7375,0.275,0.0,0.0025,6.195,12.647499999999999,1.03,0.93,0.0975,0.48250000000000004,0.0225,0.465,0.16499999999999998,1.9149999999999998,1.9575,0.1525,3.29,10.334999999999999,0.015,0.052500000000000005,1.35,3.2924999999999995,0.9075,
0.1125,3.655,0.02,0.03,24.36,0.0,0.0,0.0725,0.4925,0.0225,0.8025,0.0675,0.63,0.017499999999999998,0.0025,0.1625,0.2975,1.4175,0.0025,0.042499999999999996,0.31,8.1075,0.0675,0.3175,0.20750000000000002,0.7825,
0.065,6.08,0.0325,0.0325,0.5375,0.20249999999999999,0.20249999999999999,0.29,3.37,0.5675,5.465,16.7225,0.8425,1.3625,0.2125,0.017499999999999998,0.045,0.28500000000000003,0.05,0.41500000000000004,0.825,0.0675,16.0825,0.6075,0.16999999999999998,0.1,
1.4575,12.2825,0.8949999999999999,3.2924999999999995,4.8549999999999995,0.0025,0.0025,4.2275,6.055,1.4625,10.959999999999999,1.02,6.4325,0.43,1.72,0.825,0.725,1.985,0.9075,1.2625,2.34,1.5525,2.08,66.2375,25.165,1.575,
0.1275,16.142500000000002,0.4125,1.025,1.795,0.0025,0.052500000000000005,2.4524999999999997,6.717499999999999,0.22000000000000003,2.035,0.2225,0.7424999999999999,0.0875,0.7224999999999999,0.03,0.925,1.625,0.11000000000000001,2.2425,4.7675,0.0625,0.1,7.3125,133.59,0.7275,
0.11499999999999999,23.5075,0.1575,1.04,4.782500000000001,0.1,0.0,7.17,2.035,1.22,5.907500000000001,1.1099999999999999,3.7875,0.02,0.02,0.675,2.31,1.345,0.1625,2.6425,0.54,1.05,0.3075,2.7475,0.4575,64.94,
