50,28.5882352941,31.3333333333,27.137254902,29.9607843137,31.8039215686,31.4117647059,32.3137254902,29.568627451,28.6666666667,30.5490196078,30.1333333333
60,31.1764705882,27.0588235294,27.6470588235,28.8235294118,28.0882352941,28.5784313725,31.3725490196,28.5784313725,31.2254901961,29.068627451,29.1617647059
70,31.7647058824,33.9215686275,30.8496732026,31.045751634,28.6928104575,28.6928104575,30.5882352941,30.1960784314,27.385620915,29.6732026144,30.2810457516
80,29.9019607843,32.7450980392,30,29.3137254902,27.8431372549,29.9019607843,28.0392156863,29.6078431373,29.7058823529,28.8235294118,29.5882352941
90,30.3921568627,26.4705882353,29.0196078431,29.8039215686,29.2156862745,29.2156862745,29.0196078431,35.2941176471,30.9803921569,27.2549019608,29.6666666667
