20.6,2.2,0.05,0.0,0.3,0.0,0.0,0.0,1.2,0.0,0.0,0.0,0.0,0.0,0.35,0.0,0.1,0.5,0.0,7.25,0.0,0.0,0.0,0.0,0.45,0.0,
11.25,313.3,2.3,4.95,6.2,0.0,0.25,2.35,8.6,0.05,2.05,6.45,0.8,0.0,5.9,0.0,3.4,8.4,0.0,51.45,4.5,0.0,1.7,0.05,7.2,1.85,
0.15,1.8,0.7,4.75,0.4,0.0,0.0,0.0,0.05,0.0,0.05,0.0,0.0,0.0,2.65,0.0,0.0,0.25,0.0,41.4,0.0,0.0,0.35,0.15,2.3,0.0,
0.0,0.0,0.0,63.2,0.0,0.0,0.0,0.0,0.0,0.0,0.0,0.0,0.0,0.0,0.0,0.0,0.0,0.0,0.0,0.8,0.0,0.0,0.0,0.0,0.0,0.0,
0.95,17.1,0.0,0.0,53.75,0.0,0.0,0.75,1.0,0.0,13.75,0.0,3.8,0.0,0.15,0.0,1.0,6.6,0.0,2.05,0.95,3.9,0.05,0.05,0.85,2.3,
0.0,2.35,0.0,0.0,0.2,0.0,0.0,0.0,0.0,0.0,0.35,1.15,0.0,0.0,0.0,0.0,0.0,0.0,0.0,0.0,0.0,0.0,1.95,0.0,0.0,0.0,
0.0,0.0,0.0,0.0,0.0,0.0,1.15,0.0,0.0,0.0,0.0,6.8,0.0,0.0,0.0,0.0,0.0,0.0,0.0,0.0,0.0,0.0,0.05,0.0,0.0,0.0,
5.05,40.0,2.8,0.65,2.0,0.0,0.0,54.35,5.0,0.1,0.0,0.0,0.0,0.0,2.15,0.0,0.45,1.2,0.1,9.05,5.45,0.0,0.75,0.3,4.4,0.2,
1.4,34.3,2.2,1.85,4.85,0.0,0.0,1.45,139.2,0.05,0.0,0.0,0.0,0.0,5.15,0.0,0.3,1.9,0.0,29.15,8.1,0.0,0.55,0.05,6.4,0.1,
0.1,8.4,0.45,0.4,1.25,0.0,0.0,0.3,2.65,1.65,0.0,0.0,0.0,0.0,1.05,0.0,0.2,0.2,0.0,16.45,0.7,0.0,0.1,0.15,0.85,0.1,
0.1,20.5,0.15,0.4,2.7,0.0,0.0,2.25,7.2,0.25,65.1,15.45,0.0,0.0,0.05,0.0,1.1,1.1,0.0,1.5,1.0,0.0,0.2,0.45,1.8,0.7,
0.05,5.0,0.0,0.0,0.05,0.0,0.65,0.0,0.4,0.0,0.35,70.95,0.0,0.0,0.0,0.0,0.0,0.05,0.0,0.0,0.0,0.0,4.35,0.05,0.1,0.0,
0.0,16.95,0.0,0.0,4.7,0.0,0.0,10.2,1.1,0.0,1.7,0.0,47.7,0.0,0.0,0.0,3.4,0.0,0.0,0.8,0.1,0.0,0.0,1.35,0.0,1.0,
0.0,0.7,0.0,0.0,0.0,0.0,0.0,0.0,0.0,0.0,0.0,2.05,0.0,15.15,0.0,0.0,0.0,0.0,0.0,0.0,0.0,0.0,4.1,0.0,0.0,0.0,
0.0,0.0,0.1,0.0,0.2,0.0,0.0,0.0,0.0,0.0,0.0,0.0,0.0,0.0,5.7,0.0,0.0,0.0,0.0,14.2,0.0,0.0,0.0,0.0,0.8,0.0,
1.4,16.4,0.0,0.0,0.6,0.0,0.0,0.9,1.25,0.0,0.1,0.0,0.9,0.0,0.1,0.4,0.45,0.3,0.0,1.3,0.1,0.0,0.0,0.0,0.8,0.0,
6.7,65.65,0.4,0.15,2.15,0.0,0.0,1.7,1.7,0.0,0.0,0.0,0.0,0.0,0.65,0.0,5.4,3.55,0.0,8.75,0.75,0.0,0.4,0.0,1.05,0.0,
3.3,18.9,1.9,2.8,5.0,0.0,0.0,0.25,7.95,0.0,2.05,0.0,0.3,0.0,0.7,0.0,1.65,122.7,0.0,17.95,0.45,0.0,0.05,0.0,2.2,0.85,
0.0,1.1,0.05,0.65,0.0,0.0,0.0,0.0,0.9,0.0,0.35,0.0,0.05,0.0,0.05,0.0,0.05,1.05,0.0,5.55,0.45,0.0,0.0,0.0,0.75,0.0,
1.0,0.75,1.15,0.35,0.0,0.0,0.0,0.0,2.1,0.0,0.6,0.7,0.0,0.0,1.55,0.0,0.0,0.8,0.0,84.6,0.0,0.0,0.5,0.0,3.9,0.0,
0.65,26.95,2.4,0.4,2.0,0.0,0.0,1.05,9.15,0.0,0.2,0.0,0.8,0.0,1.1,0.0,0.55,1.3,0.05,22.45,19.75,0.0,0.0,1.25,6.95,0.0,
0.5,5.6,0.0,0.0,23.2,0.0,0.0,0.35,0.1,0.0,1.0,0.0,0.35,0.0,0.0,0.0,0.3,2.85,0.0,0.5,0.55,3.8,0.0,0.05,0.8,0.05,
0.0,5.25,0.5,0.0,0.05,0.0,0.0,0.0,1.2,0.0,7.35,11.05,0.0,0.0,0.0,0.0,0.0,0.0,0.0,3.75,0.05,0.0,23.55,0.1,0.15,0.0,
0.05,8.5,0.8,0.85,1.4,0.0,0.0,6.5,2.2,0.0,1.8,0.0,1.15,0.0,0.4,0.0,0.0,0.05,0.0,3.4,3.95,0.0,0.0,113.6,10.25,0.1,
0.9,1.8,1.6,1.25,0.6,0.0,0.0,0.0,2.4,0.0,7.0,0.0,0.0,0.0,5.95,0.0,0.0,1.85,0.0,45.5,0.3,0.0,0.1,0.3,135.45,0.0,
0.45,42.25,0.25,0.4,2.2,0.0,0.0,1.55,1.45,0.15,8.4,0.0,3.0,0.0,0.3,0.0,0.4,2.95,0.0,5.0,0.1,0.0,0.0,0.3,0.05,53.8,
