21.65,3.6,0.0,0.0,0.0,0.0,0.0,0.1,1.85,0.0,0.0,0.0,0.0,0.0,0.05,0.0,0.15,0.4,0.0,0.1,0.85,0.0,0.0,0.0,0.25,0.0,
1.3,296.35,1.7,3.0,5.45,0.05,0.05,13.5,16.6,1.05,3.7,5.05,4.0,0.25,0.8,3.15,25.45,3.65,0.4,3.05,12.6,0.2,2.65,1.0,3.25,7.75,
0.0,10.55,2.55,4.55,0.0,0.1,0.0,2.15,3.55,0.45,0.7,0.0,0.0,0.0,0.9,0.0,0.15,0.1,0.0,0.85,2.75,0.0,0.25,0.15,1.25,0.0,
0.0,0.0,0.0,63.35,0.0,0.0,0.0,0.0,0.15,0.0,0.0,0.0,0.0,0.0,0.0,0.0,0.0,0.0,0.0,0.05,0.3,0.0,0.0,0.0,0.15,0.0,
0.25,8.3,0.15,0.2,55.3,0.0,0.0,0.3,0.9,0.4,5.2,0.05,2.3,0.0,0.15,0.05,2.55,5.1,0.05,0.3,0.35,14.65,0.2,5.45,1.95,3.85,
0.0,1.4,0.0,0.0,0.0,0.1,0.0,0.1,0.1,0.0,0.65,0.95,0.2,0.4,0.4,0.15,0.0,0.0,0.0,0.0,0.0,0.0,0.6,0.4,0.3,0.25,
0.0,0.1,0.0,0.0,0.0,0.05,1.95,0.0,0.0,0.0,0.95,4.4,0.0,0.15,0.0,0.0,0.0,0.0,0.0,0.0,0.0,0.0,0.4,0.0,0.0,0.0,
1.9,34.9,1.6,0.45,0.8,0.0,0.0,56.6,8.15,0.35,0.5,0.0,2.05,0.0,0.4,0.0,3.1,0.7,0.15,2.2,5.0,0.15,0.0,1.85,2.25,3.9,
1.1,37.75,2.75,2.8,1.55,0.0,0.0,8.95,137.45,1.4,2.25,0.0,0.1,0.0,2.1,0.1,0.65,1.85,0.2,3.65,10.4,0.15,0.55,1.3,3.7,0.25,
0.0,5.5,0.55,0.3,0.0,0.0,0.0,0.6,3.05,7.65,0.9,0.0,0.1,0.0,0.45,0.0,0.4,0.0,0.05,6.1,2.15,0.0,0.0,0.05,0.7,0.45,
1.15,13.5,1.2,1.85,3.9,0.0,0.15,1.85,8.25,4.85,43.45,10.1,7.6,0.6,0.4,1.1,3.05,2.1,0.15,2.15,1.9,1.45,2.4,3.55,2.0,3.3,
0.35,2.3,0.1,0.0,0.15,0.1,0.55,0.1,0.5,0.0,6.15,58.55,0.05,1.8,0.45,0.0,0.0,0.4,0.0,0.05,0.05,0.0,9.2,0.6,0.15,0.4,
0.4,21.65,1.05,0.45,4.75,0.0,0.0,5.35,1.9,0.35,5.8,0.25,25.05,0.0,0.15,1.4,6.55,2.2,0.05,0.3,1.05,0.7,0.45,2.4,0.6,5.15,
0.0,1.05,0.05,0.0,0.4,0.05,0.45,0.05,0.0,0.0,1.05,5.5,0.2,10.9,0.0,0.0,0.0,0.0,0.0,0.0,0.0,0.05,2.05,0.1,0.05,0.05,
0.0,3.85,0.4,0.0,0.0,0.0,0.0,1.0,1.45,0.1,0.0,0.0,0.0,0.0,2.45,0.0,0.0,0.0,0.0,0.2,0.5,0.0,0.0,0.05,1.0,0.0,
0.25,12.25,0.05,0.0,0.35,0.0,0.0,0.3,0.95,0.05,0.05,0.15,1.15,0.0,0.0,5.25,2.2,0.1,0.0,0.0,0.75,0.0,0.05,0.15,0.85,0.1,
0.15,57.5,0.7,0.75,0.4,0.0,0.0,1.9,2.6,0.2,0.9,0.0,2.45,0.0,0.15,1.6,17.35,1.7,0.0,0.7,1.4,0.05,0.0,0.25,1.55,0.7,
0.8,16.05,0.55,1.0,2.9,0.0,0.0,1.9,5.8,0.3,1.3,0.0,1.45,0.0,0.0,0.45,1.75,131.75,0.3,0.9,4.7,0.25,0.05,0.55,1.35,0.9,
0.0,2.35,0.1,0.55,0.1,0.0,0.0,0.15,1.1,0.05,0.35,0.0,0.1,0.0,0.0,0.0,0.15,0.05,1.2,0.0,0.7,0.0,0.0,0.05,0.0,0.0,
0.0,11.2,0.45,0.0,0.05,0.05,0.0,2.2,6.7,1.85,0.65,0.3,0.0,0.1,0.0,0.0,0.75,1.0,0.15,8.35,2.1,0.0,0.7,0.05,5.2,1.15,
1.2,37.55,2.2,0.75,0.05,0.0,0.0,5.75,11.4,0.9,0.8,0.0,0.2,0.0,0.35,0.1,1.9,1.05,0.0,2.45,9.0,0.0,0.0,1.0,3.3,1.05,
0.05,2.3,0.05,0.0,23.05,0.0,0.0,0.0,0.25,0.0,1.15,0.0,0.85,0.0,0.0,0.05,0.45,1.95,0.0,0.0,0.1,8.7,0.0,0.5,0.15,0.4,
0.0,4.7,0.0,0.0,0.4,0.2,0.25,0.2,3.0,0.45,6.05,16.6,0.8,1.2,0.25,0.0,0.0,0.25,0.1,0.3,0.7,0.0,15.7,0.75,0.05,0.05,
0.8,8.3,0.7,2.8,4.8,0.0,0.0,3.65,5.85,1.4,12.55,0.7,7.7,0.35,1.7,0.45,0.9,1.2,0.85,1.05,2.05,1.65,2.1,64.35,24.7,1.4,
0.2,10.5,0.55,0.7,2.05,0.0,0.1,1.65,5.75,0.1,1.9,0.0,0.65,0.0,0.5,0.0,0.9,1.0,0.05,1.7,3.45,0.05,0.0,5.3,136.65,0.25,
0.05,21.3,0.3,1.1,5.7,0.0,0.0,5.35,1.15,1.35,6.45,0.55,4.05,0.05,0.0,0.35,2.65,0.95,0.05,1.8,0.3,0.45,0.25,1.75,0.15,65.9,
