pctCorrect,kappaStatistics,meanAbsoluteError,rootMeanSquaredError
12.4140893471,4.095825900655362E-4,0.0727346022,0.1904124433
12.8006872852,0.0032075194,0.0727858436,0.1905451288
11.3402061856,-0.0103110775,0.0727618496,0.1904842271
12.9295532646,0.0050067463,0.0727616462,0.1904803652
11.8986254296,-0.0035471897,0.072754936,0.1904643076
12.5,-5.796105784944087E-4,0.0728169544,0.1906257803
12.7577319588,0.0025770064,0.0727495476,0.1904525801
12.3281786942,6.419181827742135E-4,0.0727967222,0.1905736908
11.7697594502,-0.0065747054,0.072815226,0.1906185423
12.1993127148,0.0010484051,0.0727573761,0.1904682708
13.4450171821,0.0090052977,0.0727563594,0.1904684819
11.5120274914,-0.0144157762,0.0727572744,0.1904700479
13.0154639175,0.0042756878,0.0727522926,0.1904522286
12.2852233677,-0.0039424655,0.0727724232,0.190504904
13.1013745704,0.005249244,0.0727982472,0.1905754685
12.8436426117,8.518174043619515E-4,0.0727846235,0.1905438252
12.6718213058,0.0070874314,0.0727755749,0.1905133286
13.616838488,0.0105176702,0.0727659163,0.1904931231
11.8986254296,-0.0056856597,0.072752191,0.190458462
11.3402061856,-0.0115052866,0.0727844202,0.1905409505
