pctCorrect,kappaStatistics,meanAbsoluteError,rootMeanSquaredError
10.2544031311,-0.0031244612,0.0714269184,0.1988092149
11.1937377691,-0.0032187198,0.071565724,0.1995927673
10.3718199609,-0.009427906,0.0714083309,0.1997162558
11.7416829746,0.00311841,0.0714577336,0.1992385804
10.6066536204,0.003276966,0.0717405959,0.1989906109
10.6457925636,0.0028618043,0.0716266021,0.1989386461
11.5851272016,0.0089310045,0.0712070075,0.1984352318
10.6849315068,-0.0046623975,0.0715826038,0.1993394619
11.1154598826,0.0117113063,0.071544949,0.1988245776
11.5851272016,0.002460085,0.0714022501,0.1994119925
11.3111545988,0.0072293412,0.0713794936,0.1999464452
10.0195694716,-0.0022835694,0.0713154394,0.1985197858
10.2935420744,-5.992256712583252E-4,0.0714087882,0.1982455138
9.9804305284,-0.0070780803,0.0716971408,0.2002478816
11.5068493151,-0.0027258442,0.0710893824,0.1988574391
11.5068493151,0.0023395612,0.0715278261,0.1987673531
11.8982387476,0.0088350492,0.071381882,0.1989307982
10.5283757339,0.0030587251,0.0714874521,0.1984298884
11.3502935421,0.0075362471,0.0714850263,0.1993022562
11.8199608611,0.0135331236,0.071276566,0.1986881118
